<?xml version="1.0" encoding="utf-8" standalone="no"?>
<!DOCTYPE svg PUBLIC "-//W3C//DTD SVG 1.1//EN"
  "http://www.w3.org/Graphics/SVG/1.1/DTD/svg11.dtd">
<svg xmlns:xlink="http://www.w3.org/1999/xlink" width="1080pt" height="720pt" viewBox="0 0 1080 720" xmlns="http://www.w3.org/2000/svg" version="1.1">
 <metadata>
  <rdf:RDF xmlns:dc="http://purl.org/dc/elements/1.1/" xmlns:cc="http://creativecommons.org/ns#" xmlns:rdf="http://www.w3.org/1999/02/22-rdf-syntax-ns#">
   <cc:Work>
    <dc:type rdf:resource="http://purl.org/dc/dcmitype/StillImage"/>
    <dc:date>2024-03-07T08:18:22.111751</dc:date>
    <dc:format>image/svg+xml</dc:format>
    <dc:creator>
     <cc:Agent>
      <dc:title>Matplotlib v3.7.4, https://matplotlib.org/</dc:title>
     </cc:Agent>
    </dc:creator>
   </cc:Work>
  </rdf:RDF>
 </metadata>
 <defs>
  <style type="text/css">*{stroke-linejoin: round; stroke-linecap: butt}</style>
 </defs>
 <g id="figure_1">
  <g id="patch_1">
   <path d="M 0 720 
L 1080 720 
L 1080 0 
L 0 0 
z
" style="fill: #ffffff"/>
  </g>
  <g id="axes_1">
   <g id="patch_2">
    <path d="M 59.546271 349.980109 
L 534.853136 349.980109 
L 534.853136 69.391939 
L 59.546271 69.391939 
z
" style="fill: #eaeaf2"/>
   </g>
   <g id="matplotlib.axis_1">
    <g id="xtick_1">
     <g id="text_1">
      <!-- Conv_0 -->
      <g style="fill: #262626" transform="translate(65.069267 384.338272) rotate(-60) scale(0.07 -0.07)">
       <defs>
        <path id="DejaVuSans-43" d="M 4122 4306 
L 4122 3641 
Q 3803 3938 3442 4084 
Q 3081 4231 2675 4231 
Q 1875 4231 1450 3742 
Q 1025 3253 1025 2328 
Q 1025 1406 1450 917 
Q 1875 428 2675 428 
Q 3081 428 3442 575 
Q 3803 722 4122 1019 
L 4122 359 
Q 3791 134 3420 21 
Q 3050 -91 2638 -91 
Q 1578 -91 968 557 
Q 359 1206 359 2328 
Q 359 3453 968 4101 
Q 1578 4750 2638 4750 
Q 3056 4750 3426 4639 
Q 3797 4528 4122 4306 
z
" transform="scale(0.015625)"/>
        <path id="DejaVuSans-6f" d="M 1959 3097 
Q 1497 3097 1228 2736 
Q 959 2375 959 1747 
Q 959 1119 1226 758 
Q 1494 397 1959 397 
Q 2419 397 2687 759 
Q 2956 1122 2956 1747 
Q 2956 2369 2687 2733 
Q 2419 3097 1959 3097 
z
M 1959 3584 
Q 2709 3584 3137 3096 
Q 3566 2609 3566 1747 
Q 3566 888 3137 398 
Q 2709 -91 1959 -91 
Q 1206 -91 779 398 
Q 353 888 353 1747 
Q 353 2609 779 3096 
Q 1206 3584 1959 3584 
z
" transform="scale(0.015625)"/>
        <path id="DejaVuSans-6e" d="M 3513 2113 
L 3513 0 
L 2938 0 
L 2938 2094 
Q 2938 2591 2744 2837 
Q 2550 3084 2163 3084 
Q 1697 3084 1428 2787 
Q 1159 2491 1159 1978 
L 1159 0 
L 581 0 
L 581 3500 
L 1159 3500 
L 1159 2956 
Q 1366 3272 1645 3428 
Q 1925 3584 2291 3584 
Q 2894 3584 3203 3211 
Q 3513 2838 3513 2113 
z
" transform="scale(0.015625)"/>
        <path id="DejaVuSans-76" d="M 191 3500 
L 800 3500 
L 1894 563 
L 2988 3500 
L 3597 3500 
L 2284 0 
L 1503 0 
L 191 3500 
z
" transform="scale(0.015625)"/>
        <path id="DejaVuSans-5f" d="M 3263 -1063 
L 3263 -1509 
L -63 -1509 
L -63 -1063 
L 3263 -1063 
z
" transform="scale(0.015625)"/>
        <path id="DejaVuSans-30" d="M 2034 4250 
Q 1547 4250 1301 3770 
Q 1056 3291 1056 2328 
Q 1056 1369 1301 889 
Q 1547 409 2034 409 
Q 2525 409 2770 889 
Q 3016 1369 3016 2328 
Q 3016 3291 2770 3770 
Q 2525 4250 2034 4250 
z
M 2034 4750 
Q 2819 4750 3233 4129 
Q 3647 3509 3647 2328 
Q 3647 1150 3233 529 
Q 2819 -91 2034 -91 
Q 1250 -91 836 529 
Q 422 1150 422 2328 
Q 422 3509 836 4129 
Q 1250 4750 2034 4750 
z
" transform="scale(0.015625)"/>
       </defs>
       <use xlink:href="#DejaVuSans-43"/>
       <use xlink:href="#DejaVuSans-6f" x="69.824219"/>
       <use xlink:href="#DejaVuSans-6e" x="131.005859"/>
       <use xlink:href="#DejaVuSans-76" x="194.384766"/>
       <use xlink:href="#DejaVuSans-5f" x="253.564453"/>
       <use xlink:href="#DejaVuSans-30" x="303.564453"/>
      </g>
     </g>
    </g>
    <g id="xtick_2">
     <g id="text_2">
      <!-- Add_0 -->
      <g style="fill: #262626" transform="translate(106.776531 380.765603) rotate(-60) scale(0.07 -0.07)">
       <defs>
        <path id="DejaVuSans-41" d="M 2188 4044 
L 1331 1722 
L 3047 1722 
L 2188 4044 
z
M 1831 4666 
L 2547 4666 
L 4325 0 
L 3669 0 
L 3244 1197 
L 1141 1197 
L 716 0 
L 50 0 
L 1831 4666 
z
" transform="scale(0.015625)"/>
        <path id="DejaVuSans-64" d="M 2906 2969 
L 2906 4863 
L 3481 4863 
L 3481 0 
L 2906 0 
L 2906 525 
Q 2725 213 2448 61 
Q 2172 -91 1784 -91 
Q 1150 -91 751 415 
Q 353 922 353 1747 
Q 353 2572 751 3078 
Q 1150 3584 1784 3584 
Q 2172 3584 2448 3432 
Q 2725 3281 2906 2969 
z
M 947 1747 
Q 947 1113 1208 752 
Q 1469 391 1925 391 
Q 2381 391 2643 752 
Q 2906 1113 2906 1747 
Q 2906 2381 2643 2742 
Q 2381 3103 1925 3103 
Q 1469 3103 1208 2742 
Q 947 2381 947 1747 
z
" transform="scale(0.015625)"/>
       </defs>
       <use xlink:href="#DejaVuSans-41"/>
       <use xlink:href="#DejaVuSans-64" x="66.658203"/>
       <use xlink:href="#DejaVuSans-64" x="130.134766"/>
       <use xlink:href="#DejaVuSans-5f" x="193.611328"/>
       <use xlink:href="#DejaVuSans-30" x="243.611328"/>
      </g>
     </g>
    </g>
    <g id="xtick_3">
     <g id="text_3">
      <!-- Relu_0 -->
      <g style="fill: #262626" transform="translate(145.543796 382.223368) rotate(-60) scale(0.07 -0.07)">
       <defs>
        <path id="DejaVuSans-52" d="M 2841 2188 
Q 3044 2119 3236 1894 
Q 3428 1669 3622 1275 
L 4263 0 
L 3584 0 
L 2988 1197 
Q 2756 1666 2539 1819 
Q 2322 1972 1947 1972 
L 1259 1972 
L 1259 0 
L 628 0 
L 628 4666 
L 2053 4666 
Q 2853 4666 3247 4331 
Q 3641 3997 3641 3322 
Q 3641 2881 3436 2590 
Q 3231 2300 2841 2188 
z
M 1259 4147 
L 1259 2491 
L 2053 2491 
Q 2509 2491 2742 2702 
Q 2975 2913 2975 3322 
Q 2975 3731 2742 3939 
Q 2509 4147 2053 4147 
L 1259 4147 
z
" transform="scale(0.015625)"/>
        <path id="DejaVuSans-65" d="M 3597 1894 
L 3597 1613 
L 953 1613 
Q 991 1019 1311 708 
Q 1631 397 2203 397 
Q 2534 397 2845 478 
Q 3156 559 3463 722 
L 3463 178 
Q 3153 47 2828 -22 
Q 2503 -91 2169 -91 
Q 1331 -91 842 396 
Q 353 884 353 1716 
Q 353 2575 817 3079 
Q 1281 3584 2069 3584 
Q 2775 3584 3186 3129 
Q 3597 2675 3597 1894 
z
M 3022 2063 
Q 3016 2534 2758 2815 
Q 2500 3097 2075 3097 
Q 1594 3097 1305 2825 
Q 1016 2553 972 2059 
L 3022 2063 
z
" transform="scale(0.015625)"/>
        <path id="DejaVuSans-6c" d="M 603 4863 
L 1178 4863 
L 1178 0 
L 603 0 
L 603 4863 
z
" transform="scale(0.015625)"/>
        <path id="DejaVuSans-75" d="M 544 1381 
L 544 3500 
L 1119 3500 
L 1119 1403 
Q 1119 906 1312 657 
Q 1506 409 1894 409 
Q 2359 409 2629 706 
Q 2900 1003 2900 1516 
L 2900 3500 
L 3475 3500 
L 3475 0 
L 2900 0 
L 2900 538 
Q 2691 219 2414 64 
Q 2138 -91 1772 -91 
Q 1169 -91 856 284 
Q 544 659 544 1381 
z
M 1991 3584 
L 1991 3584 
z
" transform="scale(0.015625)"/>
       </defs>
       <use xlink:href="#DejaVuSans-52"/>
       <use xlink:href="#DejaVuSans-65" x="64.982422"/>
       <use xlink:href="#DejaVuSans-6c" x="126.505859"/>
       <use xlink:href="#DejaVuSans-75" x="154.289062"/>
       <use xlink:href="#DejaVuSans-5f" x="217.667969"/>
       <use xlink:href="#DejaVuSans-30" x="267.667969"/>
      </g>
     </g>
    </g>
    <g id="xtick_4">
     <g id="text_4">
      <!-- Pool_0 -->
      <g style="fill: #262626" transform="translate(185.532233 381.566) rotate(-60) scale(0.07 -0.07)">
       <defs>
        <path id="DejaVuSans-50" d="M 1259 4147 
L 1259 2394 
L 2053 2394 
Q 2494 2394 2734 2622 
Q 2975 2850 2975 3272 
Q 2975 3691 2734 3919 
Q 2494 4147 2053 4147 
L 1259 4147 
z
M 628 4666 
L 2053 4666 
Q 2838 4666 3239 4311 
Q 3641 3956 3641 3272 
Q 3641 2581 3239 2228 
Q 2838 1875 2053 1875 
L 1259 1875 
L 1259 0 
L 628 0 
L 628 4666 
z
" transform="scale(0.015625)"/>
       </defs>
       <use xlink:href="#DejaVuSans-50"/>
       <use xlink:href="#DejaVuSans-6f" x="56.677734"/>
       <use xlink:href="#DejaVuSans-6f" x="117.859375"/>
       <use xlink:href="#DejaVuSans-6c" x="179.041016"/>
       <use xlink:href="#DejaVuSans-5f" x="206.824219"/>
       <use xlink:href="#DejaVuSans-30" x="256.824219"/>
      </g>
     </g>
    </g>
    <g id="xtick_5">
     <g id="text_5">
      <!-- Conv_1 -->
      <g style="fill: #262626" transform="translate(223.504888 384.338272) rotate(-60) scale(0.07 -0.07)">
       <defs>
        <path id="DejaVuSans-31" d="M 794 531 
L 1825 531 
L 1825 4091 
L 703 3866 
L 703 4441 
L 1819 4666 
L 2450 4666 
L 2450 531 
L 3481 531 
L 3481 0 
L 794 0 
L 794 531 
z
" transform="scale(0.015625)"/>
       </defs>
       <use xlink:href="#DejaVuSans-43"/>
       <use xlink:href="#DejaVuSans-6f" x="69.824219"/>
       <use xlink:href="#DejaVuSans-6e" x="131.005859"/>
       <use xlink:href="#DejaVuSans-76" x="194.384766"/>
       <use xlink:href="#DejaVuSans-5f" x="253.564453"/>
       <use xlink:href="#DejaVuSans-31" x="303.564453"/>
      </g>
     </g>
    </g>
    <g id="xtick_6">
     <g id="text_6">
      <!-- Add_1 -->
      <g style="fill: #262626" transform="translate(265.212153 380.765603) rotate(-60) scale(0.07 -0.07)">
       <use xlink:href="#DejaVuSans-41"/>
       <use xlink:href="#DejaVuSans-64" x="66.658203"/>
       <use xlink:href="#DejaVuSans-64" x="130.134766"/>
       <use xlink:href="#DejaVuSans-5f" x="193.611328"/>
       <use xlink:href="#DejaVuSans-31" x="243.611328"/>
      </g>
     </g>
    </g>
    <g id="xtick_7">
     <g id="text_7">
      <!-- Relu_1 -->
      <g style="fill: #262626" transform="translate(303.979418 382.223368) rotate(-60) scale(0.07 -0.07)">
       <use xlink:href="#DejaVuSans-52"/>
       <use xlink:href="#DejaVuSans-65" x="64.982422"/>
       <use xlink:href="#DejaVuSans-6c" x="126.505859"/>
       <use xlink:href="#DejaVuSans-75" x="154.289062"/>
       <use xlink:href="#DejaVuSans-5f" x="217.667969"/>
       <use xlink:href="#DejaVuSans-31" x="267.667969"/>
      </g>
     </g>
    </g>
    <g id="xtick_8">
     <g id="text_8">
      <!-- Pool_1 -->
      <g style="fill: #262626" transform="translate(343.967854 381.566) rotate(-60) scale(0.07 -0.07)">
       <use xlink:href="#DejaVuSans-50"/>
       <use xlink:href="#DejaVuSans-6f" x="56.677734"/>
       <use xlink:href="#DejaVuSans-6f" x="117.859375"/>
       <use xlink:href="#DejaVuSans-6c" x="179.041016"/>
       <use xlink:href="#DejaVuSans-5f" x="206.824219"/>
       <use xlink:href="#DejaVuSans-31" x="256.824219"/>
      </g>
     </g>
    </g>
    <g id="xtick_9">
     <g id="text_9">
      <!-- Reshape_0 -->
      <g style="fill: #262626" transform="translate(375.8259 394.990883) rotate(-60) scale(0.07 -0.07)">
       <defs>
        <path id="DejaVuSans-73" d="M 2834 3397 
L 2834 2853 
Q 2591 2978 2328 3040 
Q 2066 3103 1784 3103 
Q 1356 3103 1142 2972 
Q 928 2841 928 2578 
Q 928 2378 1081 2264 
Q 1234 2150 1697 2047 
L 1894 2003 
Q 2506 1872 2764 1633 
Q 3022 1394 3022 966 
Q 3022 478 2636 193 
Q 2250 -91 1575 -91 
Q 1294 -91 989 -36 
Q 684 19 347 128 
L 347 722 
Q 666 556 975 473 
Q 1284 391 1588 391 
Q 1994 391 2212 530 
Q 2431 669 2431 922 
Q 2431 1156 2273 1281 
Q 2116 1406 1581 1522 
L 1381 1569 
Q 847 1681 609 1914 
Q 372 2147 372 2553 
Q 372 3047 722 3315 
Q 1072 3584 1716 3584 
Q 2034 3584 2315 3537 
Q 2597 3491 2834 3397 
z
" transform="scale(0.015625)"/>
        <path id="DejaVuSans-68" d="M 3513 2113 
L 3513 0 
L 2938 0 
L 2938 2094 
Q 2938 2591 2744 2837 
Q 2550 3084 2163 3084 
Q 1697 3084 1428 2787 
Q 1159 2491 1159 1978 
L 1159 0 
L 581 0 
L 581 4863 
L 1159 4863 
L 1159 2956 
Q 1366 3272 1645 3428 
Q 1925 3584 2291 3584 
Q 2894 3584 3203 3211 
Q 3513 2838 3513 2113 
z
" transform="scale(0.015625)"/>
        <path id="DejaVuSans-61" d="M 2194 1759 
Q 1497 1759 1228 1600 
Q 959 1441 959 1056 
Q 959 750 1161 570 
Q 1363 391 1709 391 
Q 2188 391 2477 730 
Q 2766 1069 2766 1631 
L 2766 1759 
L 2194 1759 
z
M 3341 1997 
L 3341 0 
L 2766 0 
L 2766 531 
Q 2569 213 2275 61 
Q 1981 -91 1556 -91 
Q 1019 -91 701 211 
Q 384 513 384 1019 
Q 384 1609 779 1909 
Q 1175 2209 1959 2209 
L 2766 2209 
L 2766 2266 
Q 2766 2663 2505 2880 
Q 2244 3097 1772 3097 
Q 1472 3097 1187 3025 
Q 903 2953 641 2809 
L 641 3341 
Q 956 3463 1253 3523 
Q 1550 3584 1831 3584 
Q 2591 3584 2966 3190 
Q 3341 2797 3341 1997 
z
" transform="scale(0.015625)"/>
        <path id="DejaVuSans-70" d="M 1159 525 
L 1159 -1331 
L 581 -1331 
L 581 3500 
L 1159 3500 
L 1159 2969 
Q 1341 3281 1617 3432 
Q 1894 3584 2278 3584 
Q 2916 3584 3314 3078 
Q 3713 2572 3713 1747 
Q 3713 922 3314 415 
Q 2916 -91 2278 -91 
Q 1894 -91 1617 61 
Q 1341 213 1159 525 
z
M 3116 1747 
Q 3116 2381 2855 2742 
Q 2594 3103 2138 3103 
Q 1681 3103 1420 2742 
Q 1159 2381 1159 1747 
Q 1159 1113 1420 752 
Q 1681 391 2138 391 
Q 2594 391 2855 752 
Q 3116 1113 3116 1747 
z
" transform="scale(0.015625)"/>
       </defs>
       <use xlink:href="#DejaVuSans-52"/>
       <use xlink:href="#DejaVuSans-65" x="64.982422"/>
       <use xlink:href="#DejaVuSans-73" x="126.505859"/>
       <use xlink:href="#DejaVuSans-68" x="178.605469"/>
       <use xlink:href="#DejaVuSans-61" x="241.984375"/>
       <use xlink:href="#DejaVuSans-70" x="303.263672"/>
       <use xlink:href="#DejaVuSans-65" x="366.740234"/>
       <use xlink:href="#DejaVuSans-5f" x="428.263672"/>
       <use xlink:href="#DejaVuSans-30" x="478.263672"/>
      </g>
     </g>
    </g>
    <g id="xtick_10">
     <g id="text_10">
      <!-- Reshape_1 -->
      <g style="fill: #262626" transform="translate(415.434806 394.990883) rotate(-60) scale(0.07 -0.07)">
       <use xlink:href="#DejaVuSans-52"/>
       <use xlink:href="#DejaVuSans-65" x="64.982422"/>
       <use xlink:href="#DejaVuSans-73" x="126.505859"/>
       <use xlink:href="#DejaVuSans-68" x="178.605469"/>
       <use xlink:href="#DejaVuSans-61" x="241.984375"/>
       <use xlink:href="#DejaVuSans-70" x="303.263672"/>
       <use xlink:href="#DejaVuSans-65" x="366.740234"/>
       <use xlink:href="#DejaVuSans-5f" x="428.263672"/>
       <use xlink:href="#DejaVuSans-31" x="478.263672"/>
      </g>
     </g>
    </g>
    <g id="xtick_11">
     <g id="text_11">
      <!-- MatMul_0 -->
      <g style="fill: #262626" transform="translate(457.286445 391.106353) rotate(-60) scale(0.07 -0.07)">
       <defs>
        <path id="DejaVuSans-4d" d="M 628 4666 
L 1569 4666 
L 2759 1491 
L 3956 4666 
L 4897 4666 
L 4897 0 
L 4281 0 
L 4281 4097 
L 3078 897 
L 2444 897 
L 1241 4097 
L 1241 0 
L 628 0 
L 628 4666 
z
" transform="scale(0.015625)"/>
        <path id="DejaVuSans-74" d="M 1172 4494 
L 1172 3500 
L 2356 3500 
L 2356 3053 
L 1172 3053 
L 1172 1153 
Q 1172 725 1289 603 
Q 1406 481 1766 481 
L 2356 481 
L 2356 0 
L 1766 0 
Q 1100 0 847 248 
Q 594 497 594 1153 
L 594 3053 
L 172 3053 
L 172 3500 
L 594 3500 
L 594 4494 
L 1172 4494 
z
" transform="scale(0.015625)"/>
       </defs>
       <use xlink:href="#DejaVuSans-4d"/>
       <use xlink:href="#DejaVuSans-61" x="86.279297"/>
       <use xlink:href="#DejaVuSans-74" x="147.558594"/>
       <use xlink:href="#DejaVuSans-4d" x="186.767578"/>
       <use xlink:href="#DejaVuSans-75" x="273.046875"/>
       <use xlink:href="#DejaVuSans-6c" x="336.425781"/>
       <use xlink:href="#DejaVuSans-5f" x="364.208984"/>
       <use xlink:href="#DejaVuSans-30" x="414.208984"/>
      </g>
     </g>
    </g>
    <g id="xtick_12">
     <g id="text_12">
      <!-- Add_2 -->
      <g style="fill: #262626" transform="translate(502.865585 380.765603) rotate(-60) scale(0.07 -0.07)">
       <defs>
        <path id="DejaVuSans-32" d="M 1228 531 
L 3431 531 
L 3431 0 
L 469 0 
L 469 531 
Q 828 903 1448 1529 
Q 2069 2156 2228 2338 
Q 2531 2678 2651 2914 
Q 2772 3150 2772 3378 
Q 2772 3750 2511 3984 
Q 2250 4219 1831 4219 
Q 1534 4219 1204 4116 
Q 875 4013 500 3803 
L 500 4441 
Q 881 4594 1212 4672 
Q 1544 4750 1819 4750 
Q 2544 4750 2975 4387 
Q 3406 4025 3406 3419 
Q 3406 3131 3298 2873 
Q 3191 2616 2906 2266 
Q 2828 2175 2409 1742 
Q 1991 1309 1228 531 
z
" transform="scale(0.015625)"/>
       </defs>
       <use xlink:href="#DejaVuSans-41"/>
       <use xlink:href="#DejaVuSans-64" x="66.658203"/>
       <use xlink:href="#DejaVuSans-64" x="130.134766"/>
       <use xlink:href="#DejaVuSans-5f" x="193.611328"/>
       <use xlink:href="#DejaVuSans-32" x="243.611328"/>
      </g>
     </g>
    </g>
   </g>
   <g id="matplotlib.axis_2">
    <g id="ytick_1">
     <g id="line2d_1">
      <path d="M 59.546271 337.226101 
L 534.853136 337.226101 
" clip-path="url(#p464ba68876)" style="fill: none; stroke: #ffffff; stroke-linecap: round"/>
     </g>
     <g id="text_13">
      <!-- $\mathdefault{10^{1}}$ -->
      <g style="fill: #262626" transform="translate(30.686271 341.405242) scale(0.11 -0.11)">
       <use xlink:href="#DejaVuSans-31" transform="translate(0 0.684375)"/>
       <use xlink:href="#DejaVuSans-30" transform="translate(63.623047 0.684375)"/>
       <use xlink:href="#DejaVuSans-31" transform="translate(128.203125 38.965625) scale(0.7)"/>
      </g>
     </g>
    </g>
    <g id="ytick_2">
     <g id="line2d_2">
      <path d="M 59.546271 284.055669 
L 534.853136 284.055669 
" clip-path="url(#p464ba68876)" style="fill: none; stroke: #ffffff; stroke-linecap: round"/>
     </g>
     <g id="text_14">
      <!-- $\mathdefault{10^{2}}$ -->
      <g style="fill: #262626" transform="translate(30.686271 288.234809) scale(0.11 -0.11)">
       <use xlink:href="#DejaVuSans-31" transform="translate(0 0.765625)"/>
       <use xlink:href="#DejaVuSans-30" transform="translate(63.623047 0.765625)"/>
       <use xlink:href="#DejaVuSans-32" transform="translate(128.203125 39.046875) scale(0.7)"/>
      </g>
     </g>
    </g>
    <g id="ytick_3">
     <g id="line2d_3">
      <path d="M 59.546271 230.885236 
L 534.853136 230.885236 
" clip-path="url(#p464ba68876)" style="fill: none; stroke: #ffffff; stroke-linecap: round"/>
     </g>
     <g id="text_15">
      <!-- $\mathdefault{10^{3}}$ -->
      <g style="fill: #262626" transform="translate(30.686271 235.064377) scale(0.11 -0.11)">
       <defs>
        <path id="DejaVuSans-33" d="M 2597 2516 
Q 3050 2419 3304 2112 
Q 3559 1806 3559 1356 
Q 3559 666 3084 287 
Q 2609 -91 1734 -91 
Q 1441 -91 1130 -33 
Q 819 25 488 141 
L 488 750 
Q 750 597 1062 519 
Q 1375 441 1716 441 
Q 2309 441 2620 675 
Q 2931 909 2931 1356 
Q 2931 1769 2642 2001 
Q 2353 2234 1838 2234 
L 1294 2234 
L 1294 2753 
L 1863 2753 
Q 2328 2753 2575 2939 
Q 2822 3125 2822 3475 
Q 2822 3834 2567 4026 
Q 2313 4219 1838 4219 
Q 1578 4219 1281 4162 
Q 984 4106 628 3988 
L 628 4550 
Q 988 4650 1302 4700 
Q 1616 4750 1894 4750 
Q 2613 4750 3031 4423 
Q 3450 4097 3450 3541 
Q 3450 3153 3228 2886 
Q 3006 2619 2597 2516 
z
" transform="scale(0.015625)"/>
       </defs>
       <use xlink:href="#DejaVuSans-31" transform="translate(0 0.765625)"/>
       <use xlink:href="#DejaVuSans-30" transform="translate(63.623047 0.765625)"/>
       <use xlink:href="#DejaVuSans-33" transform="translate(128.203125 39.046875) scale(0.7)"/>
      </g>
     </g>
    </g>
    <g id="ytick_4">
     <g id="line2d_4">
      <path d="M 59.546271 177.714804 
L 534.853136 177.714804 
" clip-path="url(#p464ba68876)" style="fill: none; stroke: #ffffff; stroke-linecap: round"/>
     </g>
     <g id="text_16">
      <!-- $\mathdefault{10^{4}}$ -->
      <g style="fill: #262626" transform="translate(30.686271 181.893945) scale(0.11 -0.11)">
       <defs>
        <path id="DejaVuSans-34" d="M 2419 4116 
L 825 1625 
L 2419 1625 
L 2419 4116 
z
M 2253 4666 
L 3047 4666 
L 3047 1625 
L 3713 1625 
L 3713 1100 
L 3047 1100 
L 3047 0 
L 2419 0 
L 2419 1100 
L 313 1100 
L 313 1709 
L 2253 4666 
z
" transform="scale(0.015625)"/>
       </defs>
       <use xlink:href="#DejaVuSans-31" transform="translate(0 0.684375)"/>
       <use xlink:href="#DejaVuSans-30" transform="translate(63.623047 0.684375)"/>
       <use xlink:href="#DejaVuSans-34" transform="translate(128.203125 38.965625) scale(0.7)"/>
      </g>
     </g>
    </g>
    <g id="ytick_5">
     <g id="line2d_5">
      <path d="M 59.546271 124.544372 
L 534.853136 124.544372 
" clip-path="url(#p464ba68876)" style="fill: none; stroke: #ffffff; stroke-linecap: round"/>
     </g>
     <g id="text_17">
      <!-- $\mathdefault{10^{5}}$ -->
      <g style="fill: #262626" transform="translate(30.686271 128.723512) scale(0.11 -0.11)">
       <defs>
        <path id="DejaVuSans-35" d="M 691 4666 
L 3169 4666 
L 3169 4134 
L 1269 4134 
L 1269 2991 
Q 1406 3038 1543 3061 
Q 1681 3084 1819 3084 
Q 2600 3084 3056 2656 
Q 3513 2228 3513 1497 
Q 3513 744 3044 326 
Q 2575 -91 1722 -91 
Q 1428 -91 1123 -41 
Q 819 9 494 109 
L 494 744 
Q 775 591 1075 516 
Q 1375 441 1709 441 
Q 2250 441 2565 725 
Q 2881 1009 2881 1497 
Q 2881 1984 2565 2268 
Q 2250 2553 1709 2553 
Q 1456 2553 1204 2497 
Q 953 2441 691 2322 
L 691 4666 
z
" transform="scale(0.015625)"/>
       </defs>
       <use xlink:href="#DejaVuSans-31" transform="translate(0 0.684375)"/>
       <use xlink:href="#DejaVuSans-30" transform="translate(63.623047 0.684375)"/>
       <use xlink:href="#DejaVuSans-35" transform="translate(128.203125 38.965625) scale(0.7)"/>
      </g>
     </g>
    </g>
    <g id="ytick_6">
     <g id="line2d_6">
      <path d="M 59.546271 71.373939 
L 534.853136 71.373939 
" clip-path="url(#p464ba68876)" style="fill: none; stroke: #ffffff; stroke-linecap: round"/>
     </g>
     <g id="text_18">
      <!-- $\mathdefault{10^{6}}$ -->
      <g style="fill: #262626" transform="translate(30.686271 75.55308) scale(0.11 -0.11)">
       <defs>
        <path id="DejaVuSans-36" d="M 2113 2584 
Q 1688 2584 1439 2293 
Q 1191 2003 1191 1497 
Q 1191 994 1439 701 
Q 1688 409 2113 409 
Q 2538 409 2786 701 
Q 3034 994 3034 1497 
Q 3034 2003 2786 2293 
Q 2538 2584 2113 2584 
z
M 3366 4563 
L 3366 3988 
Q 3128 4100 2886 4159 
Q 2644 4219 2406 4219 
Q 1781 4219 1451 3797 
Q 1122 3375 1075 2522 
Q 1259 2794 1537 2939 
Q 1816 3084 2150 3084 
Q 2853 3084 3261 2657 
Q 3669 2231 3669 1497 
Q 3669 778 3244 343 
Q 2819 -91 2113 -91 
Q 1303 -91 875 529 
Q 447 1150 447 2328 
Q 447 3434 972 4092 
Q 1497 4750 2381 4750 
Q 2619 4750 2861 4703 
Q 3103 4656 3366 4563 
z
" transform="scale(0.015625)"/>
       </defs>
       <use xlink:href="#DejaVuSans-31" transform="translate(0 0.765625)"/>
       <use xlink:href="#DejaVuSans-30" transform="translate(63.623047 0.765625)"/>
       <use xlink:href="#DejaVuSans-36" transform="translate(128.203125 39.046875) scale(0.7)"/>
      </g>
     </g>
    </g>
    <g id="ytick_7"/>
    <g id="ytick_8"/>
    <g id="ytick_9"/>
    <g id="ytick_10"/>
    <g id="ytick_11"/>
    <g id="ytick_12"/>
    <g id="ytick_13"/>
    <g id="ytick_14"/>
    <g id="ytick_15"/>
    <g id="ytick_16"/>
    <g id="ytick_17"/>
    <g id="ytick_18"/>
    <g id="ytick_19"/>
    <g id="ytick_20"/>
    <g id="ytick_21"/>
    <g id="ytick_22"/>
    <g id="ytick_23"/>
    <g id="ytick_24"/>
    <g id="ytick_25"/>
    <g id="ytick_26"/>
    <g id="ytick_27"/>
    <g id="ytick_28"/>
    <g id="ytick_29"/>
    <g id="ytick_30"/>
    <g id="ytick_31"/>
    <g id="ytick_32"/>
    <g id="ytick_33"/>
    <g id="ytick_34"/>
    <g id="ytick_35"/>
    <g id="ytick_36"/>
    <g id="ytick_37"/>
    <g id="ytick_38"/>
    <g id="ytick_39"/>
    <g id="ytick_40"/>
    <g id="ytick_41"/>
    <g id="ytick_42"/>
    <g id="ytick_43"/>
    <g id="ytick_44"/>
    <g id="ytick_45"/>
    <g id="ytick_46"/>
    <g id="ytick_47"/>
    <g id="ytick_48"/>
    <g id="ytick_49"/>
    <g id="ytick_50"/>
    <g id="text_19">
     <!-- nb_op -->
     <g style="fill: #262626" transform="translate(23.856896 227.777899) rotate(-90) scale(0.12 -0.12)">
      <defs>
       <path id="DejaVuSans-62" d="M 3116 1747 
Q 3116 2381 2855 2742 
Q 2594 3103 2138 3103 
Q 1681 3103 1420 2742 
Q 1159 2381 1159 1747 
Q 1159 1113 1420 752 
Q 1681 391 2138 391 
Q 2594 391 2855 752 
Q 3116 1113 3116 1747 
z
M 1159 2969 
Q 1341 3281 1617 3432 
Q 1894 3584 2278 3584 
Q 2916 3584 3314 3078 
Q 3713 2572 3713 1747 
Q 3713 922 3314 415 
Q 2916 -91 2278 -91 
Q 1894 -91 1617 61 
Q 1341 213 1159 525 
L 1159 0 
L 581 0 
L 581 4863 
L 1159 4863 
L 1159 2969 
z
" transform="scale(0.015625)"/>
      </defs>
      <use xlink:href="#DejaVuSans-6e"/>
      <use xlink:href="#DejaVuSans-62" x="63.378906"/>
      <use xlink:href="#DejaVuSans-5f" x="126.855469"/>
      <use xlink:href="#DejaVuSans-6f" x="176.855469"/>
      <use xlink:href="#DejaVuSans-70" x="238.037109"/>
     </g>
    </g>
   </g>
   <g id="patch_3">
    <path d="M 63.507162 53560.828929 
L 95.194286 53560.828929 
L 95.194286 114.157737 
L 63.507162 114.157737 
z
" clip-path="url(#p464ba68876)" style="fill: #4bab2e; stroke: #ffffff; stroke-linejoin: miter"/>
   </g>
   <g id="patch_4">
    <path d="M 103.116067 53560.828929 
L 134.803191 53560.828929 
L 134.803191 188.486812 
L 103.116067 188.486812 
z
" clip-path="url(#p464ba68876)" style="fill: #22dd33; stroke: #ffffff; stroke-linejoin: miter"/>
   </g>
   <g id="patch_5">
    <path d="M 142.724972 53560.828929 
L 174.412097 53560.828929 
L 174.412097 188.486812 
L 142.724972 188.486812 
z
" clip-path="url(#p464ba68876)" style="fill: #22dd33; stroke: #ffffff; stroke-linejoin: miter"/>
   </g>
   <g id="patch_6">
    <path d="M 182.333878 53560.828929 
L 214.021002 53560.828929 
L 214.021002 140.469127 
L 182.333878 140.469127 
z
" clip-path="url(#p464ba68876)" style="fill: #2fd033; stroke: #ffffff; stroke-linejoin: miter"/>
   </g>
   <g id="patch_7">
    <path d="M 221.942783 53560.828929 
L 253.629907 53560.828929 
L 253.629907 82.145947 
L 221.942783 82.145947 
z
" clip-path="url(#p464ba68876)" style="fill: #df2033; stroke: #ffffff; stroke-linejoin: miter"/>
   </g>
   <g id="patch_8">
    <path d="M 261.551688 53560.828929 
L 293.238813 53560.828929 
L 293.238813 204.492707 
L 261.551688 204.492707 
z
" clip-path="url(#p464ba68876)" style="fill: #21de33; stroke: #ffffff; stroke-linejoin: miter"/>
   </g>
   <g id="patch_9">
    <path d="M 301.160594 53560.828929 
L 332.847718 53560.828929 
L 332.847718 204.492707 
L 301.160594 204.492707 
z
" clip-path="url(#p464ba68876)" style="fill: #21de33; stroke: #ffffff; stroke-linejoin: miter"/>
   </g>
   <g id="patch_10">
    <path d="M 340.769499 53560.828929 
L 372.456624 53560.828929 
L 372.456624 140.469127 
L 340.769499 140.469127 
z
" clip-path="url(#p464ba68876)" style="fill: #2fd033; stroke: #ffffff; stroke-linejoin: miter"/>
   </g>
   <g id="patch_11">
    <path d="M 380.378405 53560.828929 
L 412.065529 53560.828929 
L 412.065529 53560.828929 
L 380.378405 53560.828929 
z
" clip-path="url(#p464ba68876)" style="fill: #20df33; stroke: #ffffff; stroke-linejoin: miter"/>
   </g>
   <g id="patch_12">
    <path d="M 419.98731 53560.828929 
L 451.674434 53560.828929 
L 451.674434 53560.828929 
L 419.98731 53560.828929 
z
" clip-path="url(#p464ba68876)" style="fill: #20df33; stroke: #ffffff; stroke-linejoin: miter"/>
   </g>
   <g id="patch_13">
    <path d="M 459.596215 53560.828929 
L 491.28334 53560.828929 
L 491.28334 209.178941 
L 459.596215 209.178941 
z
" clip-path="url(#p464ba68876)" style="fill: #21de33; stroke: #ffffff; stroke-linejoin: miter"/>
   </g>
   <g id="patch_14">
    <path d="M 499.205121 53560.828929 
L 530.892245 53560.828929 
L 530.892245 337.226101 
L 499.205121 337.226101 
z
" clip-path="url(#p464ba68876)" style="fill: #20df33; stroke: #ffffff; stroke-linejoin: miter"/>
   </g>
   <g id="patch_15">
    <path d="M 59.546271 349.980109 
L 59.546271 69.391939 
" style="fill: none; stroke: #ffffff; stroke-width: 1.25; stroke-linejoin: miter; stroke-linecap: square"/>
   </g>
   <g id="patch_16">
    <path d="M 534.853136 349.980109 
L 534.853136 69.391939 
" style="fill: none; stroke: #ffffff; stroke-width: 1.25; stroke-linejoin: miter; stroke-linecap: square"/>
   </g>
   <g id="patch_17">
    <path d="M 59.546271 349.980109 
L 534.853136 349.980109 
" style="fill: none; stroke: #ffffff; stroke-width: 1.25; stroke-linejoin: miter; stroke-linecap: square"/>
   </g>
   <g id="patch_18">
    <path d="M 59.546271 69.391939 
L 534.853136 69.391939 
" style="fill: none; stroke: #ffffff; stroke-width: 1.25; stroke-linejoin: miter; stroke-linecap: square"/>
   </g>
  </g>
  <g id="axes_2">
   <g id="patch_19">
    <path d="M 591.733136 349.980109 
L 1067.04 349.980109 
L 1067.04 69.391939 
L 591.733136 69.391939 
z
" style="fill: #eaeaf2"/>
   </g>
   <g id="matplotlib.axis_3">
    <g id="xtick_13">
     <g id="text_20">
      <!-- Conv_0 -->
      <g style="fill: #262626" transform="translate(597.256131 384.338272) rotate(-60) scale(0.07 -0.07)">
       <use xlink:href="#DejaVuSans-43"/>
       <use xlink:href="#DejaVuSans-6f" x="69.824219"/>
       <use xlink:href="#DejaVuSans-6e" x="131.005859"/>
       <use xlink:href="#DejaVuSans-76" x="194.384766"/>
       <use xlink:href="#DejaVuSans-5f" x="253.564453"/>
       <use xlink:href="#DejaVuSans-30" x="303.564453"/>
      </g>
     </g>
    </g>
    <g id="xtick_14">
     <g id="text_21">
      <!-- Add_0 -->
      <g style="fill: #262626" transform="translate(638.963396 380.765603) rotate(-60) scale(0.07 -0.07)">
       <use xlink:href="#DejaVuSans-41"/>
       <use xlink:href="#DejaVuSans-64" x="66.658203"/>
       <use xlink:href="#DejaVuSans-64" x="130.134766"/>
       <use xlink:href="#DejaVuSans-5f" x="193.611328"/>
       <use xlink:href="#DejaVuSans-30" x="243.611328"/>
      </g>
     </g>
    </g>
    <g id="xtick_15">
     <g id="text_22">
      <!-- Relu_0 -->
      <g style="fill: #262626" transform="translate(677.73066 382.223368) rotate(-60) scale(0.07 -0.07)">
       <use xlink:href="#DejaVuSans-52"/>
       <use xlink:href="#DejaVuSans-65" x="64.982422"/>
       <use xlink:href="#DejaVuSans-6c" x="126.505859"/>
       <use xlink:href="#DejaVuSans-75" x="154.289062"/>
       <use xlink:href="#DejaVuSans-5f" x="217.667969"/>
       <use xlink:href="#DejaVuSans-30" x="267.667969"/>
      </g>
     </g>
    </g>
    <g id="xtick_16">
     <g id="text_23">
      <!-- Pool_0 -->
      <g style="fill: #262626" transform="translate(717.719097 381.566) rotate(-60) scale(0.07 -0.07)">
       <use xlink:href="#DejaVuSans-50"/>
       <use xlink:href="#DejaVuSans-6f" x="56.677734"/>
       <use xlink:href="#DejaVuSans-6f" x="117.859375"/>
       <use xlink:href="#DejaVuSans-6c" x="179.041016"/>
       <use xlink:href="#DejaVuSans-5f" x="206.824219"/>
       <use xlink:href="#DejaVuSans-30" x="256.824219"/>
      </g>
     </g>
    </g>
    <g id="xtick_17">
     <g id="text_24">
      <!-- Conv_1 -->
      <g style="fill: #262626" transform="translate(755.691752 384.338272) rotate(-60) scale(0.07 -0.07)">
       <use xlink:href="#DejaVuSans-43"/>
       <use xlink:href="#DejaVuSans-6f" x="69.824219"/>
       <use xlink:href="#DejaVuSans-6e" x="131.005859"/>
       <use xlink:href="#DejaVuSans-76" x="194.384766"/>
       <use xlink:href="#DejaVuSans-5f" x="253.564453"/>
       <use xlink:href="#DejaVuSans-31" x="303.564453"/>
      </g>
     </g>
    </g>
    <g id="xtick_18">
     <g id="text_25">
      <!-- Add_1 -->
      <g style="fill: #262626" transform="translate(797.399017 380.765603) rotate(-60) scale(0.07 -0.07)">
       <use xlink:href="#DejaVuSans-41"/>
       <use xlink:href="#DejaVuSans-64" x="66.658203"/>
       <use xlink:href="#DejaVuSans-64" x="130.134766"/>
       <use xlink:href="#DejaVuSans-5f" x="193.611328"/>
       <use xlink:href="#DejaVuSans-31" x="243.611328"/>
      </g>
     </g>
    </g>
    <g id="xtick_19">
     <g id="text_26">
      <!-- Relu_1 -->
      <g style="fill: #262626" transform="translate(836.166282 382.223368) rotate(-60) scale(0.07 -0.07)">
       <use xlink:href="#DejaVuSans-52"/>
       <use xlink:href="#DejaVuSans-65" x="64.982422"/>
       <use xlink:href="#DejaVuSans-6c" x="126.505859"/>
       <use xlink:href="#DejaVuSans-75" x="154.289062"/>
       <use xlink:href="#DejaVuSans-5f" x="217.667969"/>
       <use xlink:href="#DejaVuSans-31" x="267.667969"/>
      </g>
     </g>
    </g>
    <g id="xtick_20">
     <g id="text_27">
      <!-- Pool_1 -->
      <g style="fill: #262626" transform="translate(876.154719 381.566) rotate(-60) scale(0.07 -0.07)">
       <use xlink:href="#DejaVuSans-50"/>
       <use xlink:href="#DejaVuSans-6f" x="56.677734"/>
       <use xlink:href="#DejaVuSans-6f" x="117.859375"/>
       <use xlink:href="#DejaVuSans-6c" x="179.041016"/>
       <use xlink:href="#DejaVuSans-5f" x="206.824219"/>
       <use xlink:href="#DejaVuSans-31" x="256.824219"/>
      </g>
     </g>
    </g>
    <g id="xtick_21">
     <g id="text_28">
      <!-- Reshape_0 -->
      <g style="fill: #262626" transform="translate(908.012765 394.990883) rotate(-60) scale(0.07 -0.07)">
       <use xlink:href="#DejaVuSans-52"/>
       <use xlink:href="#DejaVuSans-65" x="64.982422"/>
       <use xlink:href="#DejaVuSans-73" x="126.505859"/>
       <use xlink:href="#DejaVuSans-68" x="178.605469"/>
       <use xlink:href="#DejaVuSans-61" x="241.984375"/>
       <use xlink:href="#DejaVuSans-70" x="303.263672"/>
       <use xlink:href="#DejaVuSans-65" x="366.740234"/>
       <use xlink:href="#DejaVuSans-5f" x="428.263672"/>
       <use xlink:href="#DejaVuSans-30" x="478.263672"/>
      </g>
     </g>
    </g>
    <g id="xtick_22">
     <g id="text_29">
      <!-- Reshape_1 -->
      <g style="fill: #262626" transform="translate(947.62167 394.990883) rotate(-60) scale(0.07 -0.07)">
       <use xlink:href="#DejaVuSans-52"/>
       <use xlink:href="#DejaVuSans-65" x="64.982422"/>
       <use xlink:href="#DejaVuSans-73" x="126.505859"/>
       <use xlink:href="#DejaVuSans-68" x="178.605469"/>
       <use xlink:href="#DejaVuSans-61" x="241.984375"/>
       <use xlink:href="#DejaVuSans-70" x="303.263672"/>
       <use xlink:href="#DejaVuSans-65" x="366.740234"/>
       <use xlink:href="#DejaVuSans-5f" x="428.263672"/>
       <use xlink:href="#DejaVuSans-31" x="478.263672"/>
      </g>
     </g>
    </g>
    <g id="xtick_23">
     <g id="text_30">
      <!-- MatMul_0 -->
      <g style="fill: #262626" transform="translate(989.47331 391.106353) rotate(-60) scale(0.07 -0.07)">
       <use xlink:href="#DejaVuSans-4d"/>
       <use xlink:href="#DejaVuSans-61" x="86.279297"/>
       <use xlink:href="#DejaVuSans-74" x="147.558594"/>
       <use xlink:href="#DejaVuSans-4d" x="186.767578"/>
       <use xlink:href="#DejaVuSans-75" x="273.046875"/>
       <use xlink:href="#DejaVuSans-6c" x="336.425781"/>
       <use xlink:href="#DejaVuSans-5f" x="364.208984"/>
       <use xlink:href="#DejaVuSans-30" x="414.208984"/>
      </g>
     </g>
    </g>
    <g id="xtick_24">
     <g id="text_31">
      <!-- Add_2 -->
      <g style="fill: #262626" transform="translate(1035.052449 380.765603) rotate(-60) scale(0.07 -0.07)">
       <use xlink:href="#DejaVuSans-41"/>
       <use xlink:href="#DejaVuSans-64" x="66.658203"/>
       <use xlink:href="#DejaVuSans-64" x="130.134766"/>
       <use xlink:href="#DejaVuSans-5f" x="193.611328"/>
       <use xlink:href="#DejaVuSans-32" x="243.611328"/>
      </g>
     </g>
    </g>
    <g id="text_32">
     <!-- node -->
     <g style="fill: #262626" transform="translate(814.41188 408.934242) scale(0.12 -0.12)">
      <use xlink:href="#DejaVuSans-6e"/>
      <use xlink:href="#DejaVuSans-6f" x="63.378906"/>
      <use xlink:href="#DejaVuSans-64" x="124.560547"/>
      <use xlink:href="#DejaVuSans-65" x="188.037109"/>
     </g>
    </g>
   </g>
   <g id="matplotlib.axis_4">
    <g id="ytick_51">
     <g id="line2d_7">
      <path d="M 591.733136 349.980109 
L 1067.04 349.980109 
" clip-path="url(#p9e64fe2fd3)" style="fill: none; stroke: #ffffff; stroke-linecap: round"/>
     </g>
     <g id="text_33">
      <!-- 0.0 -->
      <g style="fill: #262626" transform="translate(564.739698 354.159249) scale(0.11 -0.11)">
       <defs>
        <path id="DejaVuSans-2e" d="M 684 794 
L 1344 794 
L 1344 0 
L 684 0 
L 684 794 
z
" transform="scale(0.015625)"/>
       </defs>
       <use xlink:href="#DejaVuSans-30"/>
       <use xlink:href="#DejaVuSans-2e" x="63.623047"/>
       <use xlink:href="#DejaVuSans-30" x="95.410156"/>
      </g>
     </g>
    </g>
    <g id="ytick_52">
     <g id="line2d_8">
      <path d="M 591.733136 311.389947 
L 1067.04 311.389947 
" clip-path="url(#p9e64fe2fd3)" style="fill: none; stroke: #ffffff; stroke-linecap: round"/>
     </g>
     <g id="text_34">
      <!-- 0.1 -->
      <g style="fill: #262626" transform="translate(564.739698 315.569088) scale(0.11 -0.11)">
       <use xlink:href="#DejaVuSans-30"/>
       <use xlink:href="#DejaVuSans-2e" x="63.623047"/>
       <use xlink:href="#DejaVuSans-31" x="95.410156"/>
      </g>
     </g>
    </g>
    <g id="ytick_53">
     <g id="line2d_9">
      <path d="M 591.733136 272.799786 
L 1067.04 272.799786 
" clip-path="url(#p9e64fe2fd3)" style="fill: none; stroke: #ffffff; stroke-linecap: round"/>
     </g>
     <g id="text_35">
      <!-- 0.2 -->
      <g style="fill: #262626" transform="translate(564.739698 276.978927) scale(0.11 -0.11)">
       <use xlink:href="#DejaVuSans-30"/>
       <use xlink:href="#DejaVuSans-2e" x="63.623047"/>
       <use xlink:href="#DejaVuSans-32" x="95.410156"/>
      </g>
     </g>
    </g>
    <g id="ytick_54">
     <g id="line2d_10">
      <path d="M 591.733136 234.209624 
L 1067.04 234.209624 
" clip-path="url(#p9e64fe2fd3)" style="fill: none; stroke: #ffffff; stroke-linecap: round"/>
     </g>
     <g id="text_36">
      <!-- 0.3 -->
      <g style="fill: #262626" transform="translate(564.739698 238.388765) scale(0.11 -0.11)">
       <use xlink:href="#DejaVuSans-30"/>
       <use xlink:href="#DejaVuSans-2e" x="63.623047"/>
       <use xlink:href="#DejaVuSans-33" x="95.410156"/>
      </g>
     </g>
    </g>
    <g id="ytick_55">
     <g id="line2d_11">
      <path d="M 591.733136 195.619463 
L 1067.04 195.619463 
" clip-path="url(#p9e64fe2fd3)" style="fill: none; stroke: #ffffff; stroke-linecap: round"/>
     </g>
     <g id="text_37">
      <!-- 0.4 -->
      <g style="fill: #262626" transform="translate(564.739698 199.798604) scale(0.11 -0.11)">
       <use xlink:href="#DejaVuSans-30"/>
       <use xlink:href="#DejaVuSans-2e" x="63.623047"/>
       <use xlink:href="#DejaVuSans-34" x="95.410156"/>
      </g>
     </g>
    </g>
    <g id="ytick_56">
     <g id="line2d_12">
      <path d="M 591.733136 157.029301 
L 1067.04 157.029301 
" clip-path="url(#p9e64fe2fd3)" style="fill: none; stroke: #ffffff; stroke-linecap: round"/>
     </g>
     <g id="text_38">
      <!-- 0.5 -->
      <g style="fill: #262626" transform="translate(564.739698 161.208442) scale(0.11 -0.11)">
       <use xlink:href="#DejaVuSans-30"/>
       <use xlink:href="#DejaVuSans-2e" x="63.623047"/>
       <use xlink:href="#DejaVuSans-35" x="95.410156"/>
      </g>
     </g>
    </g>
    <g id="ytick_57">
     <g id="line2d_13">
      <path d="M 591.733136 118.43914 
L 1067.04 118.43914 
" clip-path="url(#p9e64fe2fd3)" style="fill: none; stroke: #ffffff; stroke-linecap: round"/>
     </g>
     <g id="text_39">
      <!-- 0.6 -->
      <g style="fill: #262626" transform="translate(564.739698 122.618281) scale(0.11 -0.11)">
       <use xlink:href="#DejaVuSans-30"/>
       <use xlink:href="#DejaVuSans-2e" x="63.623047"/>
       <use xlink:href="#DejaVuSans-36" x="95.410156"/>
      </g>
     </g>
    </g>
    <g id="ytick_58">
     <g id="line2d_14">
      <path d="M 591.733136 79.848979 
L 1067.04 79.848979 
" clip-path="url(#p9e64fe2fd3)" style="fill: none; stroke: #ffffff; stroke-linecap: round"/>
     </g>
     <g id="text_40">
      <!-- 0.7 -->
      <g style="fill: #262626" transform="translate(564.739698 84.028119) scale(0.11 -0.11)">
       <defs>
        <path id="DejaVuSans-37" d="M 525 4666 
L 3525 4666 
L 3525 4397 
L 1831 0 
L 1172 0 
L 2766 4134 
L 525 4134 
L 525 4666 
z
" transform="scale(0.015625)"/>
       </defs>
       <use xlink:href="#DejaVuSans-30"/>
       <use xlink:href="#DejaVuSans-2e" x="63.623047"/>
       <use xlink:href="#DejaVuSans-37" x="95.410156"/>
      </g>
     </g>
    </g>
    <g id="text_41">
     <!-- Percent of total -->
     <g style="fill: #262626" transform="translate(558.244073 255.571962) rotate(-90) scale(0.12 -0.12)">
      <defs>
       <path id="DejaVuSans-72" d="M 2631 2963 
Q 2534 3019 2420 3045 
Q 2306 3072 2169 3072 
Q 1681 3072 1420 2755 
Q 1159 2438 1159 1844 
L 1159 0 
L 581 0 
L 581 3500 
L 1159 3500 
L 1159 2956 
Q 1341 3275 1631 3429 
Q 1922 3584 2338 3584 
Q 2397 3584 2469 3576 
Q 2541 3569 2628 3553 
L 2631 2963 
z
" transform="scale(0.015625)"/>
       <path id="DejaVuSans-63" d="M 3122 3366 
L 3122 2828 
Q 2878 2963 2633 3030 
Q 2388 3097 2138 3097 
Q 1578 3097 1268 2742 
Q 959 2388 959 1747 
Q 959 1106 1268 751 
Q 1578 397 2138 397 
Q 2388 397 2633 464 
Q 2878 531 3122 666 
L 3122 134 
Q 2881 22 2623 -34 
Q 2366 -91 2075 -91 
Q 1284 -91 818 406 
Q 353 903 353 1747 
Q 353 2603 823 3093 
Q 1294 3584 2113 3584 
Q 2378 3584 2631 3529 
Q 2884 3475 3122 3366 
z
" transform="scale(0.015625)"/>
       <path id="DejaVuSans-20" transform="scale(0.015625)"/>
       <path id="DejaVuSans-66" d="M 2375 4863 
L 2375 4384 
L 1825 4384 
Q 1516 4384 1395 4259 
Q 1275 4134 1275 3809 
L 1275 3500 
L 2222 3500 
L 2222 3053 
L 1275 3053 
L 1275 0 
L 697 0 
L 697 3053 
L 147 3053 
L 147 3500 
L 697 3500 
L 697 3744 
Q 697 4328 969 4595 
Q 1241 4863 1831 4863 
L 2375 4863 
z
" transform="scale(0.015625)"/>
      </defs>
      <use xlink:href="#DejaVuSans-50"/>
      <use xlink:href="#DejaVuSans-65" x="56.677734"/>
      <use xlink:href="#DejaVuSans-72" x="118.201172"/>
      <use xlink:href="#DejaVuSans-63" x="157.064453"/>
      <use xlink:href="#DejaVuSans-65" x="212.044922"/>
      <use xlink:href="#DejaVuSans-6e" x="273.568359"/>
      <use xlink:href="#DejaVuSans-74" x="336.947266"/>
      <use xlink:href="#DejaVuSans-20" x="376.15625"/>
      <use xlink:href="#DejaVuSans-6f" x="407.943359"/>
      <use xlink:href="#DejaVuSans-66" x="469.125"/>
      <use xlink:href="#DejaVuSans-20" x="504.330078"/>
      <use xlink:href="#DejaVuSans-74" x="536.117188"/>
      <use xlink:href="#DejaVuSans-6f" x="575.326172"/>
      <use xlink:href="#DejaVuSans-74" x="636.507812"/>
      <use xlink:href="#DejaVuSans-61" x="675.716797"/>
      <use xlink:href="#DejaVuSans-6c" x="736.996094"/>
     </g>
    </g>
   </g>
   <g id="patch_20">
    <path d="M 595.694026 349.980109 
L 627.38115 349.980109 
L 627.38115 283.173402 
L 595.694026 283.173402 
z
" clip-path="url(#p9e64fe2fd3)" style="fill: #4bab2e; stroke: #ffffff; stroke-linejoin: miter"/>
   </g>
   <g id="patch_21">
    <path d="M 635.302931 349.980109 
L 666.990056 349.980109 
L 666.990056 347.307841 
L 635.302931 347.307841 
z
" clip-path="url(#p9e64fe2fd3)" style="fill: #22dd33; stroke: #ffffff; stroke-linejoin: miter"/>
   </g>
   <g id="patch_22">
    <path d="M 674.911837 349.980109 
L 706.598961 349.980109 
L 706.598961 347.307841 
L 674.911837 347.307841 
z
" clip-path="url(#p9e64fe2fd3)" style="fill: #22dd33; stroke: #ffffff; stroke-linejoin: miter"/>
   </g>
   <g id="patch_23">
    <path d="M 714.520742 349.980109 
L 746.207866 349.980109 
L 746.207866 328.601963 
L 714.520742 328.601963 
z
" clip-path="url(#p9e64fe2fd3)" style="fill: #2fd033; stroke: #ffffff; stroke-linejoin: miter"/>
   </g>
   <g id="patch_24">
    <path d="M 754.129648 349.980109 
L 785.816772 349.980109 
L 785.816772 82.753281 
L 754.129648 82.753281 
z
" clip-path="url(#p9e64fe2fd3)" style="fill: #df2033; stroke: #ffffff; stroke-linejoin: miter"/>
   </g>
   <g id="patch_25">
    <path d="M 793.738553 349.980109 
L 825.425677 349.980109 
L 825.425677 348.643975 
L 793.738553 348.643975 
z
" clip-path="url(#p9e64fe2fd3)" style="fill: #21de33; stroke: #ffffff; stroke-linejoin: miter"/>
   </g>
   <g id="patch_26">
    <path d="M 833.347458 349.980109 
L 865.034583 349.980109 
L 865.034583 348.643975 
L 833.347458 348.643975 
z
" clip-path="url(#p9e64fe2fd3)" style="fill: #21de33; stroke: #ffffff; stroke-linejoin: miter"/>
   </g>
   <g id="patch_27">
    <path d="M 872.956364 349.980109 
L 904.643488 349.980109 
L 904.643488 328.601963 
L 872.956364 328.601963 
z
" clip-path="url(#p9e64fe2fd3)" style="fill: #2fd033; stroke: #ffffff; stroke-linejoin: miter"/>
   </g>
   <g id="patch_28">
    <path d="M 912.565269 349.980109 
L 944.252393 349.980109 
L 944.252393 349.980109 
L 912.565269 349.980109 
z
" clip-path="url(#p9e64fe2fd3)" style="fill: #20df33; stroke: #ffffff; stroke-linejoin: miter"/>
   </g>
   <g id="patch_29">
    <path d="M 952.174174 349.980109 
L 983.861299 349.980109 
L 983.861299 349.980109 
L 952.174174 349.980109 
z
" clip-path="url(#p9e64fe2fd3)" style="fill: #20df33; stroke: #ffffff; stroke-linejoin: miter"/>
   </g>
   <g id="patch_30">
    <path d="M 991.78308 349.980109 
L 1023.470204 349.980109 
L 1023.470204 348.889387 
L 991.78308 348.889387 
z
" clip-path="url(#p9e64fe2fd3)" style="fill: #21de33; stroke: #ffffff; stroke-linejoin: miter"/>
   </g>
   <g id="patch_31">
    <path d="M 1031.391985 349.980109 
L 1063.079109 349.980109 
L 1063.079109 349.975848 
L 1031.391985 349.975848 
z
" clip-path="url(#p9e64fe2fd3)" style="fill: #20df33; stroke: #ffffff; stroke-linejoin: miter"/>
   </g>
   <g id="patch_32">
    <path d="M 591.733136 349.980109 
L 591.733136 69.391939 
" style="fill: none; stroke: #ffffff; stroke-width: 1.25; stroke-linejoin: miter; stroke-linecap: square"/>
   </g>
   <g id="patch_33">
    <path d="M 1067.04 349.980109 
L 1067.04 69.391939 
" style="fill: none; stroke: #ffffff; stroke-width: 1.25; stroke-linejoin: miter; stroke-linecap: square"/>
   </g>
   <g id="patch_34">
    <path d="M 591.733136 349.980109 
L 1067.04 349.980109 
" style="fill: none; stroke: #ffffff; stroke-width: 1.25; stroke-linejoin: miter; stroke-linecap: square"/>
   </g>
   <g id="patch_35">
    <path d="M 591.733136 69.391939 
L 1067.04 69.391939 
" style="fill: none; stroke: #ffffff; stroke-width: 1.25; stroke-linejoin: miter; stroke-linecap: square"/>
   </g>
  </g>
  <g id="axes_3">
   <g id="matplotlib.axis_5"/>
   <g id="matplotlib.axis_6"/>
   <g id="patch_36">
    <path d="M 409.434971 566.745915 
C 409.434971 565.523768 409.415009 564.301701 409.375092 563.080206 
C 409.335176 561.85871 409.27531 560.637948 409.19552 559.418407 
L 297.199703 566.745915 
z
" style="fill: #4c72b0; stroke: #ffffff; stroke-linejoin: miter"/>
   </g>
   <g id="patch_37">
    <path d="M 409.19552 559.418407 
C 408.363278 546.698165 405.369978 534.212177 400.344309 522.497236 
C 395.31864 510.782295 388.333668 500.008721 379.689687 490.639688 
C 371.045707 481.270654 360.868391 473.442374 349.595277 467.491398 
C 338.322164 461.540422 326.117151 457.55327 313.50495 455.701356 
C 300.892749 453.849441 288.056727 454.159688 275.548723 456.61876 
C 263.040719 459.077831 251.042585 463.649975 240.070138 470.138627 
C 229.097691 476.62728 219.310459 484.938103 211.129207 494.713804 
C 202.947956 504.489505 196.491632 515.587955 192.037802 527.532016 
C 187.583972 539.476078 185.19739 552.092097 184.980658 564.837693 
C 184.763927 577.58329 186.720196 590.273157 190.765365 602.361739 
C 194.810533 614.450321 200.885787 625.761863 208.729944 635.810067 
C 216.574101 645.858271 226.073116 654.497047 236.818611 661.355001 
C 247.564106 668.212954 259.399855 673.19038 271.817022 676.07329 
C 284.234189 678.9562 297.052242 679.70268 309.720114 678.280639 
C 322.387987 676.858598 334.721503 673.28871 346.190427 667.724449 
C 357.65935 662.160189 368.096936 654.682454 377.054458 645.612724 
L 297.199703 566.745915 
z
" style="fill: #dd8452; stroke: #ffffff; stroke-linejoin: miter"/>
   </g>
   <g id="patch_38">
    <path d="M 377.054458 645.612724 
C 377.28789 645.376368 377.520272 645.138976 377.751596 644.900556 
C 377.982921 644.662136 378.213185 644.422691 378.442384 644.182226 
L 297.199703 566.745915 
z
" style="fill: #55a868; stroke: #ffffff; stroke-linejoin: miter"/>
   </g>
   <g id="patch_39">
    <path d="M 378.442384 644.182226 
C 387.449559 634.732305 394.739272 623.782905 399.983028 611.827436 
C 405.226784 599.871967 408.344617 587.09275 409.196028 574.065651 
L 297.199703 566.745915 
z
" style="fill: #c44e52; stroke: #ffffff; stroke-linejoin: miter"/>
   </g>
   <g id="patch_40">
    <path d="M 409.196028 574.065651 
C 409.275649 572.8474 409.335388 571.627931 409.37522 570.407731 
C 409.415051 569.187531 409.434971 567.966762 409.434971 566.745912 
L 297.199703 566.745915 
z
" style="fill: #8172b3; stroke: #ffffff; stroke-linejoin: miter"/>
   </g>
   <g id="patch_41">
    <path d="M 409.434971 566.745912 
C 409.434971 566.745912 409.434971 566.745912 409.434971 566.745912 
L 297.199703 566.745915 
z
" style="fill: #937860; stroke: #ffffff; stroke-linejoin: miter"/>
   </g>
   <g id="text_42">
    <!-- Add -->
    <g style="fill: #262626" transform="translate(420.592631 565.748947) scale(0.11 -0.11)">
     <use xlink:href="#DejaVuSans-41"/>
     <use xlink:href="#DejaVuSans-64" x="66.658203"/>
     <use xlink:href="#DejaVuSans-64" x="130.134766"/>
    </g>
   </g>
   <g id="text_43">
    <!-- 1.04 -->
    <g style="fill: #262626" transform="translate(351.145562 567.857739) scale(0.12 -0.12)">
     <use xlink:href="#DejaVuSans-31"/>
     <use xlink:href="#DejaVuSans-2e" x="63.623047"/>
     <use xlink:href="#DejaVuSans-30" x="95.410156"/>
     <use xlink:href="#DejaVuSans-34" x="159.033203"/>
    </g>
   </g>
   <g id="text_44">
    <!-- Conv -->
    <g style="fill: #262626" transform="translate(153.628018 526.645939) scale(0.11 -0.11)">
     <use xlink:href="#DejaVuSans-43"/>
     <use xlink:href="#DejaVuSans-6f" x="69.824219"/>
     <use xlink:href="#DejaVuSans-6e" x="131.005859"/>
     <use xlink:href="#DejaVuSans-76" x="194.384766"/>
    </g>
   </g>
   <g id="text_45">
    <!-- 86.56 -->
    <g style="fill: #262626" transform="translate(216.925688 546.528826) scale(0.12 -0.12)">
     <defs>
      <path id="DejaVuSans-38" d="M 2034 2216 
Q 1584 2216 1326 1975 
Q 1069 1734 1069 1313 
Q 1069 891 1326 650 
Q 1584 409 2034 409 
Q 2484 409 2743 651 
Q 3003 894 3003 1313 
Q 3003 1734 2745 1975 
Q 2488 2216 2034 2216 
z
M 1403 2484 
Q 997 2584 770 2862 
Q 544 3141 544 3541 
Q 544 4100 942 4425 
Q 1341 4750 2034 4750 
Q 2731 4750 3128 4425 
Q 3525 4100 3525 3541 
Q 3525 3141 3298 2862 
Q 3072 2584 2669 2484 
Q 3125 2378 3379 2068 
Q 3634 1759 3634 1313 
Q 3634 634 3220 271 
Q 2806 -91 2034 -91 
Q 1263 -91 848 271 
Q 434 634 434 1313 
Q 434 1759 690 2068 
Q 947 2378 1403 2484 
z
M 1172 3481 
Q 1172 3119 1398 2916 
Q 1625 2713 2034 2713 
Q 2441 2713 2670 2916 
Q 2900 3119 2900 3481 
Q 2900 3844 2670 4047 
Q 2441 4250 2034 4250 
Q 1625 4250 1398 4047 
Q 1172 3844 1172 3481 
z
" transform="scale(0.015625)"/>
     </defs>
     <use xlink:href="#DejaVuSans-38"/>
     <use xlink:href="#DejaVuSans-36" x="63.623047"/>
     <use xlink:href="#DejaVuSans-2e" x="127.246094"/>
     <use xlink:href="#DejaVuSans-35" x="159.033203"/>
     <use xlink:href="#DejaVuSans-36" x="222.65625"/>
    </g>
   </g>
   <g id="text_46">
    <!-- MatMul -->
    <g style="fill: #262626" transform="translate(385.806785 655.751333) scale(0.11 -0.11)">
     <use xlink:href="#DejaVuSans-4d"/>
     <use xlink:href="#DejaVuSans-61" x="86.279297"/>
     <use xlink:href="#DejaVuSans-74" x="147.558594"/>
     <use xlink:href="#DejaVuSans-4d" x="186.767578"/>
     <use xlink:href="#DejaVuSans-75" x="273.046875"/>
     <use xlink:href="#DejaVuSans-6c" x="336.425781"/>
    </g>
   </g>
   <g id="text_47">
    <!-- 0.28 -->
    <g style="fill: #262626" transform="translate(332.171464 616.94995) scale(0.12 -0.12)">
     <use xlink:href="#DejaVuSans-30"/>
     <use xlink:href="#DejaVuSans-2e" x="63.623047"/>
     <use xlink:href="#DejaVuSans-32" x="95.410156"/>
     <use xlink:href="#DejaVuSans-38" x="159.033203"/>
    </g>
   </g>
   <g id="text_48">
    <!-- Pool -->
    <g style="fill: #262626" transform="translate(410.26136 619.370901) scale(0.11 -0.11)">
     <use xlink:href="#DejaVuSans-50"/>
     <use xlink:href="#DejaVuSans-6f" x="56.677734"/>
     <use xlink:href="#DejaVuSans-6f" x="117.859375"/>
     <use xlink:href="#DejaVuSans-6c" x="179.041016"/>
    </g>
   </g>
   <g id="text_49">
    <!-- 11.08 -->
    <g style="fill: #262626" transform="translate(341.692823 597.106078) scale(0.12 -0.12)">
     <use xlink:href="#DejaVuSans-31"/>
     <use xlink:href="#DejaVuSans-31" x="63.623047"/>
     <use xlink:href="#DejaVuSans-2e" x="127.246094"/>
     <use xlink:href="#DejaVuSans-30" x="159.033203"/>
     <use xlink:href="#DejaVuSans-38" x="222.65625"/>
    </g>
   </g>
   <g id="text_50">
    <!-- Relu -->
    <g style="fill: #262626" transform="translate(420.592771 573.809225) scale(0.11 -0.11)">
     <use xlink:href="#DejaVuSans-52"/>
     <use xlink:href="#DejaVuSans-65" x="64.982422"/>
     <use xlink:href="#DejaVuSans-6c" x="126.505859"/>
     <use xlink:href="#DejaVuSans-75" x="154.289062"/>
    </g>
   </g>
   <g id="text_51">
    <!-- 1.04 -->
    <g style="fill: #262626" transform="translate(351.145638 572.254255) scale(0.12 -0.12)">
     <use xlink:href="#DejaVuSans-31"/>
     <use xlink:href="#DejaVuSans-2e" x="63.623047"/>
     <use xlink:href="#DejaVuSans-30" x="95.410156"/>
     <use xlink:href="#DejaVuSans-34" x="159.033203"/>
    </g>
   </g>
   <g id="text_52">
    <!-- reshape -->
    <g style="fill: #262626" transform="translate(420.658498 569.781224) scale(0.11 -0.11)">
     <use xlink:href="#DejaVuSans-72"/>
     <use xlink:href="#DejaVuSans-65" x="38.863281"/>
     <use xlink:href="#DejaVuSans-73" x="100.386719"/>
     <use xlink:href="#DejaVuSans-68" x="152.486328"/>
     <use xlink:href="#DejaVuSans-61" x="215.865234"/>
     <use xlink:href="#DejaVuSans-70" x="277.144531"/>
     <use xlink:href="#DejaVuSans-65" x="340.621094"/>
    </g>
   </g>
   <g id="text_53">
    <!-- 0.00 -->
    <g style="fill: #262626" transform="translate(351.181489 570.057163) scale(0.12 -0.12)">
     <use xlink:href="#DejaVuSans-30"/>
     <use xlink:href="#DejaVuSans-2e" x="63.623047"/>
     <use xlink:href="#DejaVuSans-30" x="95.410156"/>
     <use xlink:href="#DejaVuSans-30" x="159.033203"/>
    </g>
   </g>
  </g>
  <g id="axes_4">
   <g id="text_54">
    <!-- Total: 905,738 -->
    <g style="fill: #262626" transform="translate(591.733136 482.569464) scale(0.27 -0.27)">
     <defs>
      <path id="DejaVuSans-54" d="M -19 4666 
L 3928 4666 
L 3928 4134 
L 2272 4134 
L 2272 0 
L 1638 0 
L 1638 4134 
L -19 4134 
L -19 4666 
z
" transform="scale(0.015625)"/>
      <path id="DejaVuSans-3a" d="M 750 794 
L 1409 794 
L 1409 0 
L 750 0 
L 750 794 
z
M 750 3309 
L 1409 3309 
L 1409 2516 
L 750 2516 
L 750 3309 
z
" transform="scale(0.015625)"/>
      <path id="DejaVuSans-39" d="M 703 97 
L 703 672 
Q 941 559 1184 500 
Q 1428 441 1663 441 
Q 2288 441 2617 861 
Q 2947 1281 2994 2138 
Q 2813 1869 2534 1725 
Q 2256 1581 1919 1581 
Q 1219 1581 811 2004 
Q 403 2428 403 3163 
Q 403 3881 828 4315 
Q 1253 4750 1959 4750 
Q 2769 4750 3195 4129 
Q 3622 3509 3622 2328 
Q 3622 1225 3098 567 
Q 2575 -91 1691 -91 
Q 1453 -91 1209 -44 
Q 966 3 703 97 
z
M 1959 2075 
Q 2384 2075 2632 2365 
Q 2881 2656 2881 3163 
Q 2881 3666 2632 3958 
Q 2384 4250 1959 4250 
Q 1534 4250 1286 3958 
Q 1038 3666 1038 3163 
Q 1038 2656 1286 2365 
Q 1534 2075 1959 2075 
z
" transform="scale(0.015625)"/>
      <path id="DejaVuSans-2c" d="M 750 794 
L 1409 794 
L 1409 256 
L 897 -744 
L 494 -744 
L 750 256 
L 750 794 
z
" transform="scale(0.015625)"/>
     </defs>
     <use xlink:href="#DejaVuSans-54"/>
     <use xlink:href="#DejaVuSans-6f" x="44.083984"/>
     <use xlink:href="#DejaVuSans-74" x="105.265625"/>
     <use xlink:href="#DejaVuSans-61" x="144.474609"/>
     <use xlink:href="#DejaVuSans-6c" x="205.753906"/>
     <use xlink:href="#DejaVuSans-3a" x="233.537109"/>
     <use xlink:href="#DejaVuSans-20" x="267.228516"/>
     <use xlink:href="#DejaVuSans-39" x="299.015625"/>
     <use xlink:href="#DejaVuSans-30" x="362.638672"/>
     <use xlink:href="#DejaVuSans-35" x="426.261719"/>
     <use xlink:href="#DejaVuSans-2c" x="489.884766"/>
     <use xlink:href="#DejaVuSans-37" x="521.671875"/>
     <use xlink:href="#DejaVuSans-33" x="585.294922"/>
     <use xlink:href="#DejaVuSans-38" x="648.917969"/>
    </g>
   </g>
   <g id="text_55">
    <!-- Max value: 627,200 -->
    <g style="fill: #262626" transform="translate(591.733136 538.687098) scale(0.26 -0.26)">
     <defs>
      <path id="DejaVuSans-78" d="M 3513 3500 
L 2247 1797 
L 3578 0 
L 2900 0 
L 1881 1375 
L 863 0 
L 184 0 
L 1544 1831 
L 300 3500 
L 978 3500 
L 1906 2253 
L 2834 3500 
L 3513 3500 
z
" transform="scale(0.015625)"/>
     </defs>
     <use xlink:href="#DejaVuSans-4d"/>
     <use xlink:href="#DejaVuSans-61" x="86.279297"/>
     <use xlink:href="#DejaVuSans-78" x="147.558594"/>
     <use xlink:href="#DejaVuSans-20" x="206.738281"/>
     <use xlink:href="#DejaVuSans-76" x="238.525391"/>
     <use xlink:href="#DejaVuSans-61" x="297.705078"/>
     <use xlink:href="#DejaVuSans-6c" x="358.984375"/>
     <use xlink:href="#DejaVuSans-75" x="386.767578"/>
     <use xlink:href="#DejaVuSans-65" x="450.146484"/>
     <use xlink:href="#DejaVuSans-3a" x="511.669922"/>
     <use xlink:href="#DejaVuSans-20" x="545.361328"/>
     <use xlink:href="#DejaVuSans-36" x="577.148438"/>
     <use xlink:href="#DejaVuSans-32" x="640.771484"/>
     <use xlink:href="#DejaVuSans-37" x="704.394531"/>
     <use xlink:href="#DejaVuSans-2c" x="768.017578"/>
     <use xlink:href="#DejaVuSans-32" x="799.804688"/>
     <use xlink:href="#DejaVuSans-30" x="863.427734"/>
     <use xlink:href="#DejaVuSans-30" x="927.050781"/>
    </g>
   </g>
   <g id="text_56">
    <!-- by Conv_1 with 69.25% of total -->
    <g style="fill: #262626" transform="translate(605.992341 558.32827) scale(0.15 -0.15)">
     <defs>
      <path id="DejaVuSans-79" d="M 2059 -325 
Q 1816 -950 1584 -1140 
Q 1353 -1331 966 -1331 
L 506 -1331 
L 506 -850 
L 844 -850 
Q 1081 -850 1212 -737 
Q 1344 -625 1503 -206 
L 1606 56 
L 191 3500 
L 800 3500 
L 1894 763 
L 2988 3500 
L 3597 3500 
L 2059 -325 
z
" transform="scale(0.015625)"/>
      <path id="DejaVuSans-77" d="M 269 3500 
L 844 3500 
L 1563 769 
L 2278 3500 
L 2956 3500 
L 3675 769 
L 4391 3500 
L 4966 3500 
L 4050 0 
L 3372 0 
L 2619 2869 
L 1863 0 
L 1184 0 
L 269 3500 
z
" transform="scale(0.015625)"/>
      <path id="DejaVuSans-69" d="M 603 3500 
L 1178 3500 
L 1178 0 
L 603 0 
L 603 3500 
z
M 603 4863 
L 1178 4863 
L 1178 4134 
L 603 4134 
L 603 4863 
z
" transform="scale(0.015625)"/>
      <path id="DejaVuSans-25" d="M 4653 2053 
Q 4381 2053 4226 1822 
Q 4072 1591 4072 1178 
Q 4072 772 4226 539 
Q 4381 306 4653 306 
Q 4919 306 5073 539 
Q 5228 772 5228 1178 
Q 5228 1588 5073 1820 
Q 4919 2053 4653 2053 
z
M 4653 2450 
Q 5147 2450 5437 2106 
Q 5728 1763 5728 1178 
Q 5728 594 5436 251 
Q 5144 -91 4653 -91 
Q 4153 -91 3862 251 
Q 3572 594 3572 1178 
Q 3572 1766 3864 2108 
Q 4156 2450 4653 2450 
z
M 1428 4353 
Q 1159 4353 1004 4120 
Q 850 3888 850 3481 
Q 850 3069 1003 2837 
Q 1156 2606 1428 2606 
Q 1700 2606 1854 2837 
Q 2009 3069 2009 3481 
Q 2009 3884 1853 4118 
Q 1697 4353 1428 4353 
z
M 4250 4750 
L 4750 4750 
L 1831 -91 
L 1331 -91 
L 4250 4750 
z
M 1428 4750 
Q 1922 4750 2215 4408 
Q 2509 4066 2509 3481 
Q 2509 2891 2217 2550 
Q 1925 2209 1428 2209 
Q 931 2209 642 2551 
Q 353 2894 353 3481 
Q 353 4063 643 4406 
Q 934 4750 1428 4750 
z
" transform="scale(0.015625)"/>
     </defs>
     <use xlink:href="#DejaVuSans-62"/>
     <use xlink:href="#DejaVuSans-79" x="63.476562"/>
     <use xlink:href="#DejaVuSans-20" x="122.65625"/>
     <use xlink:href="#DejaVuSans-43" x="154.443359"/>
     <use xlink:href="#DejaVuSans-6f" x="224.267578"/>
     <use xlink:href="#DejaVuSans-6e" x="285.449219"/>
     <use xlink:href="#DejaVuSans-76" x="348.828125"/>
     <use xlink:href="#DejaVuSans-5f" x="408.007812"/>
     <use xlink:href="#DejaVuSans-31" x="458.007812"/>
     <use xlink:href="#DejaVuSans-20" x="521.630859"/>
     <use xlink:href="#DejaVuSans-77" x="553.417969"/>
     <use xlink:href="#DejaVuSans-69" x="635.205078"/>
     <use xlink:href="#DejaVuSans-74" x="662.988281"/>
     <use xlink:href="#DejaVuSans-68" x="702.197266"/>
     <use xlink:href="#DejaVuSans-20" x="765.576172"/>
     <use xlink:href="#DejaVuSans-36" x="797.363281"/>
     <use xlink:href="#DejaVuSans-39" x="860.986328"/>
     <use xlink:href="#DejaVuSans-2e" x="924.609375"/>
     <use xlink:href="#DejaVuSans-32" x="956.396484"/>
     <use xlink:href="#DejaVuSans-35" x="1020.019531"/>
     <use xlink:href="#DejaVuSans-25" x="1083.642578"/>
     <use xlink:href="#DejaVuSans-20" x="1178.662109"/>
     <use xlink:href="#DejaVuSans-6f" x="1210.449219"/>
     <use xlink:href="#DejaVuSans-66" x="1271.630859"/>
     <use xlink:href="#DejaVuSans-20" x="1306.835938"/>
     <use xlink:href="#DejaVuSans-74" x="1338.623047"/>
     <use xlink:href="#DejaVuSans-6f" x="1377.832031"/>
     <use xlink:href="#DejaVuSans-74" x="1439.013672"/>
     <use xlink:href="#DejaVuSans-61" x="1478.222656"/>
     <use xlink:href="#DejaVuSans-6c" x="1539.501953"/>
    </g>
   </g>
   <g id="text_57">
    <!-- Mean: 75,478 -->
    <g style="fill: #262626" transform="translate(591.733136 622.863549) scale(0.26 -0.26)">
     <use xlink:href="#DejaVuSans-4d"/>
     <use xlink:href="#DejaVuSans-65" x="86.279297"/>
     <use xlink:href="#DejaVuSans-61" x="147.802734"/>
     <use xlink:href="#DejaVuSans-6e" x="209.082031"/>
     <use xlink:href="#DejaVuSans-3a" x="272.460938"/>
     <use xlink:href="#DejaVuSans-20" x="306.152344"/>
     <use xlink:href="#DejaVuSans-37" x="337.939453"/>
     <use xlink:href="#DejaVuSans-35" x="401.5625"/>
     <use xlink:href="#DejaVuSans-2c" x="465.185547"/>
     <use xlink:href="#DejaVuSans-34" x="496.972656"/>
     <use xlink:href="#DejaVuSans-37" x="560.595703"/>
     <use xlink:href="#DejaVuSans-38" x="624.21875"/>
    </g>
   </g>
  </g>
  <g id="text_58">
   <!-- nb_op mnist_property -->
   <g style="fill: #262626" transform="translate(321.75625 44.79375) scale(0.4 -0.4)">
    <defs>
     <path id="DejaVuSans-6d" d="M 3328 2828 
Q 3544 3216 3844 3400 
Q 4144 3584 4550 3584 
Q 5097 3584 5394 3201 
Q 5691 2819 5691 2113 
L 5691 0 
L 5113 0 
L 5113 2094 
Q 5113 2597 4934 2840 
Q 4756 3084 4391 3084 
Q 3944 3084 3684 2787 
Q 3425 2491 3425 1978 
L 3425 0 
L 2847 0 
L 2847 2094 
Q 2847 2600 2669 2842 
Q 2491 3084 2119 3084 
Q 1678 3084 1418 2786 
Q 1159 2488 1159 1978 
L 1159 0 
L 581 0 
L 581 3500 
L 1159 3500 
L 1159 2956 
Q 1356 3278 1631 3431 
Q 1906 3584 2284 3584 
Q 2666 3584 2933 3390 
Q 3200 3197 3328 2828 
z
" transform="scale(0.015625)"/>
    </defs>
    <use xlink:href="#DejaVuSans-6e"/>
    <use xlink:href="#DejaVuSans-62" x="63.378906"/>
    <use xlink:href="#DejaVuSans-5f" x="126.855469"/>
    <use xlink:href="#DejaVuSans-6f" x="176.855469"/>
    <use xlink:href="#DejaVuSans-70" x="238.037109"/>
    <use xlink:href="#DejaVuSans-20" x="301.513672"/>
    <use xlink:href="#DejaVuSans-6d" x="333.300781"/>
    <use xlink:href="#DejaVuSans-6e" x="430.712891"/>
    <use xlink:href="#DejaVuSans-69" x="494.091797"/>
    <use xlink:href="#DejaVuSans-73" x="521.875"/>
    <use xlink:href="#DejaVuSans-74" x="573.974609"/>
    <use xlink:href="#DejaVuSans-5f" x="613.183594"/>
    <use xlink:href="#DejaVuSans-70" x="663.183594"/>
    <use xlink:href="#DejaVuSans-72" x="726.660156"/>
    <use xlink:href="#DejaVuSans-6f" x="765.523438"/>
    <use xlink:href="#DejaVuSans-70" x="826.705078"/>
    <use xlink:href="#DejaVuSans-65" x="890.181641"/>
    <use xlink:href="#DejaVuSans-72" x="951.705078"/>
    <use xlink:href="#DejaVuSans-74" x="992.818359"/>
    <use xlink:href="#DejaVuSans-79" x="1032.027344"/>
   </g>
  </g>
 </g>
 <defs>
  <clipPath id="p464ba68876">
   <rect x="59.546271" y="69.391939" width="475.306864" height="280.588169"/>
  </clipPath>
  <clipPath id="p9e64fe2fd3">
   <rect x="591.733136" y="69.391939" width="475.306864" height="280.588169"/>
  </clipPath>
 </defs>
</svg>
